"0","fit <- smooth.spline(age, wage, df = 16)"
"0","fit2 <- smooth.spline(age, wage, cv = TRUE)"
"2","Warning: cross-validation with non-unique 'x' values seems doubtful"
"0","fit2$df"
"1","[1]"
"1"," 6.794596"
"1","
"
"0","lines(fit, col = ""red"", lwd = 2)"
