"0","coef(summary(fit.5))"
"1","             "
"1","   Estimate"
"1"," Std. Error"
"1","     t value"
"1","     Pr(>|t|)"
"1","
(Intercept)  "
"1","  111.70361"
"1","  0.7287647"
"1"," 153.2780243"
"1"," 0.000000e+00"
"1","
poly(age, 5)1"
"1","  447.06785"
"1"," 39.9160847"
"1","  11.2001930"
"1"," 1.491111e-28"
"1","
poly(age, 5)2"
"1"," -478.31581"
"1"," 39.9160847"
"1"," -11.9830341"
"1"," 2.367734e-32"
"1","
poly(age, 5)3"
"1","  125.52169"
"1"," 39.9160847"
"1","   3.1446392"
"1"," 1.679213e-03"
"1","
poly(age, 5)4"
"1","  -77.91118"
"1"," 39.9160847"
"1","  -1.9518743"
"1"," 5.104623e-02"
"1","
poly(age, 5)5"
"1","  -35.81289"
"1"," 39.9160847"
"1","  -0.8972045"
"1"," 3.696820e-01"
"1","
"
