"0","boost.boston <- gbm(medv ~ ., data = Boston[train, ],"
"0","distribution = ""gaussian"", n.trees = 5000,"
"0","interaction.depth = 4, shrinkage = 0.2, verbose = F)"
"0","yhat.boost <- predict(boost.boston,"
"0","newdata = Boston[-train, ], n.trees = 5000)"
"0","mean((yhat.boost - boston.test)^2)"
"1","[1]"
"1"," 16.54778"
"1","
"
