"0","boot.fn <- function(data, index)"
"0","  coef(lm(mpg ~ horsepower, data = data, subset = index))"
"0","boot.fn(Auto, 1:392)"
"1","(Intercept) "
"1"," horsepower "
"1","
"
"1"," 39.9358610 "
"1"," -0.1578447 "
"1","
"
