"0"," predict.regsubsets <- function(object, newdata, id, ...) {"
"0","  form <- as.formula(object$call[[2]])"
"0","  mat <- model.matrix(form, newdata)"
"0","  coefi <- coef(object, id = id)"
"0","  xvars <- names(coefi)"
"0","  mat[, xvars] %*% coefi"
"0"," }"
