"0","library(ISLR2)"
"0","attach(Carseats)"
"2","The following objects are masked from Carseats (pos = 22):

    Advertising, Age, CompPrice, Education, Income, Population, Price, Sales, ShelveLoc,
    Urban, US

"
"2","The following objects are masked from Carseats (pos = 24):

    Advertising, Age, CompPrice, Education, Income, Population, Price, Sales, ShelveLoc,
    Urban, US

"
"2","The following objects are masked from Carseats (pos = 26):

    Advertising, Age, CompPrice, Education, Income, Population, Price, Sales, ShelveLoc,
    Urban, US

"
"0","High <- factor(ifelse(Sales <= 8, ""No"", ""Yes""))"
