"0","library(ROCR)"
"0","rocplot <- function(pred, truth, ...) {"
"0","    predob <- prediction(pred, truth)"
"0","    perf <- performance(predob, ""tpr"", ""fpr"")"
"0","    plot(perf, ...)"
"0","}"
