"0","set.seed(1)"
"0","boot.fn(Auto, sample(392, 392, replace = T))"
"1","(Intercept) "
"1"," horsepower "
"1","
"
"1"," 40.3404517 "
"1"," -0.1634868 "
"1","
"
"0","boot.fn(Auto, sample(392, 392, replace = T))"
"1","(Intercept) "
"1"," horsepower "
"1","
"
"1"," 40.1186906 "
"1"," -0.1577063 "
"1","
"
