"0","library(gbm)"
"2","Loaded gbm 2.1.8.1
"
"0","set.seed(1)"
"0","boost.boston <- gbm(medv ~ ., data = Boston[train, ],"
"0","distribution = ""gaussian"", n.trees = 5000,"
"0","interaction.depth = 4)"
