"0","attach(Auto)"
"2","The following object is masked _by_ .GlobalEnv:

    cylinders

"
"2","The following objects are masked from Auto (pos = 20):

    acceleration, cylinders, displacement, horsepower, mpg, name, origin,
    weight, year

"
"2","The following objects are masked from Auto (pos = 21):

    acceleration, cylinders, displacement, horsepower, mpg, name, origin,
    weight, year

"
"0","mean((mpg - predict(lm.fit, Auto))[-train]^2)"
"1","[1]"
"1"," 23.26601"
"1","
"
