"0","fit <- lm(wage ~ poly(age, 4), data = Wage)"
"0","coef(summary(fit))"
"1","             "
"1","   Estimate"
"1"," Std. Error"
"1","    t value"
"1","     Pr(>|t|)"
"1","
(Intercept)  "
"1","  111.70361"
"1","  0.7287409"
"1"," 153.283015"
"1"," 0.000000e+00"
"1","
poly(age, 4)1"
"1","  447.06785"
"1"," 39.9147851"
"1","  11.200558"
"1"," 1.484604e-28"
"1","
poly(age, 4)2"
"1"," -478.31581"
"1"," 39.9147851"
"1"," -11.983424"
"1"," 2.355831e-32"
"1","
poly(age, 4)3"
"1","  125.52169"
"1"," 39.9147851"
"1","   3.144742"
"1"," 1.678622e-03"
"1","
poly(age, 4)4"
"1","  -77.91118"
"1"," 39.9147851"
"1","  -1.951938"
"1"," 5.103865e-02"
"1","
"
